{
  "users": [
    {
      "id": "8061e334-49af-4bac-bdb3-87249c0b2e55",
      "name": "Yolanda",
      "description": "Totam id assumenda et omnis.",
      "picture": "https://cloudflare-ipfs.com/ipfs/Qmd3W5DuhgHirLHGVixi6V76LhCkZUz6pnFt5AJBiyvHye/avatar/364.jpg",
      "country": "Belize",
      "joining_date": "2023-01-15T03:58:53.372Z"
    },
    {
      "id": "70353a31-ee07-4178-b20f-e10502bbedf7",
      "name": "Darren",
      "description": "Eum fugit quod omnis expedita ut nulla non quod. Sunt beatae nam dolore rerum. Est ullam pariatur aut debitis aliquam. Est velit veritatis est sed ut qui quisquam sed.",
      "picture": "https://cloudflare-ipfs.com/ipfs/Qmd3W5DuhgHirLHGVixi6V76LhCkZUz6pnFt5AJBiyvHye/avatar/1160.jpg",
      "country": "Paraguay",
      "joining_date": "2022-12-29T22:03:41.959Z"
    },
    {
      "id": "f4abb3e5-0bcb-4662-8bff-a36d9dacdcbd",
      "name": "Timothy",
      "description": "Animi veniam quam id voluptatibus. Consectetur impedit sunt sequi iste sequi commodi. Fugiat rerum ut corrupti in exercitationem consequatur. Nobis ut aut ipsa nobis.",
      "picture": "https://cloudflare-ipfs.com/ipfs/Qmd3W5DuhgHirLHGVixi6V76LhCkZUz6pnFt5AJBiyvHye/avatar/469.jpg",
      "country": "Singapore",
      "joining_date": "2023-10-02T15:07:47.177Z"
    },
    {
      "id": "8f2b350c-375f-4840-b9ab-83e51a8e6f78",
      "name": "Nicolas",
      "description": "Consectetur nihil magnam ut. Quod omnis beatae voluptatem molestiae numquam a non. In aperiam in itaque itaque quasi vel. Iusto dignissimos qui aut omnis est consectetur.",
      "picture": "https://cloudflare-ipfs.com/ipfs/Qmd3W5DuhgHirLHGVixi6V76LhCkZUz6pnFt5AJBiyvHye/avatar/604.jpg",
      "country": "Dominican Republic",
      "joining_date": "2022-10-13T22:04:49.280Z"
    },
    {
      "id": "8d5dbc2b-e0ba-464e-a36f-d553d16b480b",
      "name": "Norwood",
      "description": "Corporis voluptatem quos dicta enim veritatis nisi optio.",
      "picture": "https://cloudflare-ipfs.com/ipfs/Qmd3W5DuhgHirLHGVixi6V76LhCkZUz6pnFt5AJBiyvHye/avatar/544.jpg",
      "country": "Vietnam",
      "joining_date": "2023-06-19T10:31:24.802Z"
    },
    {
      "id": "17e11063-f8be-41bb-914e-ef48599c8dda",
      "name": "Dylan",
      "description": "Deserunt non vel quam pariatur architecto sunt. Alias nesciunt amet itaque ut rerum.",
      "picture": "https://cloudflare-ipfs.com/ipfs/Qmd3W5DuhgHirLHGVixi6V76LhCkZUz6pnFt5AJBiyvHye/avatar/437.jpg",
      "country": "Belgium",
      "joining_date": "2023-02-21T00:52:58.566Z"
    },
    {
      "id": "eda7de04-668b-406b-9fb2-439eaae80af6",
      "name": "Ava",
      "description": "Temporibus possimus dolore sunt est labore. Fugit repudiandae est eos vitae dignissimos deserunt officiis. Sed est et sed nesciunt.",
      "picture": "https://cloudflare-ipfs.com/ipfs/Qmd3W5DuhgHirLHGVixi6V76LhCkZUz6pnFt5AJBiyvHye/avatar/716.jpg",
      "country": "Saint Lucia",
      "joining_date": "2023-05-03T22:40:25.175Z"
    },
    {
      "id": "222af068-4d44-49e2-9f84-9b7579838207",
      "name": "Darien",
      "description": "Aut vitae et doloremque repellat reiciendis amet incidunt.",
      "picture": "https://cloudflare-ipfs.com/ipfs/Qmd3W5DuhgHirLHGVixi6V76LhCkZUz6pnFt5AJBiyvHye/avatar/1042.jpg",
      "country": "Nicaragua",
      "joining_date": "2023-04-03T12:36:28.971Z"
    },
    {
      "id": "147b5cb9-c6d5-4ff2-8355-6ee90a1a3311",
      "name": "Summer",
      "description": "Consequatur occaecati consequatur ut rerum provident assumenda illum. Qui velit impedit quo aliquam magni nobis ut assumenda soluta.",
      "picture": "https://cloudflare-ipfs.com/ipfs/Qmd3W5DuhgHirLHGVixi6V76LhCkZUz6pnFt5AJBiyvHye/avatar/847.jpg",
      "country": "Pitcairn Islands",
      "joining_date": "2022-10-17T13:19:04.009Z"
    },
    {
      "id": "4779c677-ae3e-489b-ba29-ba7dc222b94e",
      "name": "Marcellus",
      "description": "Quis et enim quas modi reiciendis dolores officia quis est. Fugiat inventore porro enim in et sapiente a quisquam magni. Earum et perspiciatis animi veniam sit.",
      "picture": "https://cloudflare-ipfs.com/ipfs/Qmd3W5DuhgHirLHGVixi6V76LhCkZUz6pnFt5AJBiyvHye/avatar/201.jpg",
      "country": "Dominican Republic",
      "joining_date": "2022-11-18T11:07:14.758Z"
    },
    {
      "id": "4d60ee9a-ecfb-457c-93b7-dbcfab135ac5",
      "name": "Kim",
      "description": "Nulla placeat est. Aut quas est nemo. Maxime tempore dignissimos fugit velit et similique.",
      "picture": "https://cloudflare-ipfs.com/ipfs/Qmd3W5DuhgHirLHGVixi6V76LhCkZUz6pnFt5AJBiyvHye/avatar/33.jpg",
      "country": "Switzerland",
      "joining_date": "2023-06-19T07:56:37.934Z"
    }
  ]
}